memory_initialization_radix = 16;
memory_initialization_vector = 
08100003,
00000000,
08100001,
20020000,
20030001,
20040000,
200d0000,
20050004,
20060000,
20070001,
200a0000,
200b00f0,
200e0003,
201e0000,
3c011001,
ac220000,
3c011001,
ac2300f0,
3c011001,
ac2201e0,
3c011001,
ac2302d0,
00056082,
00cc3020,
3c011001,
00250821,
ac260000,
71cc7802,
00ef3820,
3c011001,
00250821,
ac2700f0,
28aa0050,
20010001,
142a0009,
3c011001,
00250821,
ac2601e0,
3c011001,
00250821,
ac2702d0,
20cf0000,
20f00000,
08100040,
28aa00a0,
20010001,
15410009,
00c77820,
3c011001,
00250821,
ac2f01e0,
71e68002,
3c011001,
00250821,
ac3002d0,
08100040,
70c77802,
3c011001,
00250821,
ac2f01e0,
71e78002,
3c011001,
00250821,
ac3002d0,
01f0e020,
3c011001,
00250821,
ac3c03c0,
20a50004,
14abffd0,
0000000d;
